{
  "label": {
    "Logo": {
      "size": "38px",
      "weight": "bold",
      "align": "center"
    },
    "Header": {
      "size": "20px",
      "weight": "bold",
      "align": "left"
    },
    "Title": {
      "size": "18px",
      "weight": "bold",
      "align": "left"
    },
    "Label": {
      "size": "16px",
      "weight": "normal",
      "align": "left"
    },
    "BLabel": {
      "size": "16px",
      "weight": "bold",
      "align": "left"
    },
    "Description": {
      "size": "9px",
      "weight": "normal",
      "align": "center"
    },
    "SDescription": {
      "size": "11px",
      "weight": "normal",
      "align": "center"
    },
    "SRDescription": {
      "size": "13px",
      "weight": "normal",
      "align": "center"
    },
    "SSDescription": {
      "size": "14px",
      "weight": "normal",
      "align": "center"
    },
    "CLabel": {
      "size": "16px",
      "weight": "normal",
      "align": "center"
    }
  }
}
