{
  "PhotoPicker": "Выберите действие",
  "TakePhoto...": "Сделать фото",
  "ChoseVideo...": "Выбрать из телефона",
  "VideoPicker": "",
  "TakeVideo...": "Сделать фото",
  "image": "Изображения",
  "application": "Другое",
  "success": "Готово",
  "request": "повторить попытку",
  "confirm_payment": "Подвердите выставление счета",
  "video": "Видео",
  "master": "Вход для мастеров",
  "admin": "Вход для управляющих",
  "repeat": "Восстановить сессию",
  "registration": "Регистрация",
  "welcome": "Добро Пожаловать",
  "ShowAndPrint": "Просмотреть",
  "Share": "Поделиться",
  "dontforget": "Причина обрашения",
  "edit": "ред.",
  "whatPreview": "Опишите, с какой проблемой приехал клиент",
  "listAgent": "контрагенты",
  "searchAgent": "Найти контрагента",
  "nameAgent": "По названию",
  "innAgent": "Инн",
  "ByAgent": "Номер",
  "typeAgent": "Тип контрагента",
  "type": "Тип",
  "category": "Категория",
  "welcomeAgent": "Добро пожаловать\nв быструю регистрацию.",
  "totalAgent": "Карточка контрагента",
  "descAgent": "Вы можете быстро зарегистрировать контрагента и исправить в любое другое время.",
  "nameByAgent": "Наименование",
  "innByAgent": "ИНН",
  "shortByAgent": "Краткое описание",
  "phoneByAgent": "Телефон",
  "emailByAgent": "E-mail",
  "GROUP": "Группа",
  "SUBGROUP": "Субгруппа",
  "CoastMeasure": "Ед. изм.",
  "AddedBankTax": "Добавить расчетный счет",
  "ADDEDCARS": "Добавить автомобиль",
  "EDITCARS": "редактировать автомобиль",
  "NEWGOODSTASK": "Новая номенклатура",
  "withGarage": "Cо склада",
  "psrn": "ОГРН",
  "SearchByAgentGarage": "Поиск по номенклатуре",
  "search_vin": "Поиск по VIN",
  "search_plate": "Поиск по Гос. номеру",
  "search_frameNumber": "Поиск по № кузова",
  "kppByAgent": "КПП",
  "indexByAgent": "Почтовый индекс",
  "NEXT": "Далее",
  "article": "Артикул",
  "oem": "Оригинальный артикул",
  "ADDEDACTION": "Добавить наменклатуру",
  "StatusUpdate": "СМЫСЛОВЫЕ ЗНАЧЕНИЯ СТАТУСОВ",
  "addedMaterial": "Добаление запчастей расходников",
  "material": "Запчасти",
  "Conclution": "Согласование",
  "Recompomition": "Рекомендации",
  "MyWork": "Своя работа",
  "Material/Coast": "ЗАПЧАСТИ / РАСХОДНИКИ",
  "PermissionMaterial": "Уточните производителя запчасти",
  "AddedPerformer": "Выбор исполнителя",
  "numberType": "Порядковый номер",
  "AddedOwner": "Добавление владельца",
  "AddedClient": "Добавление клиента",
  "succesAddedTask": "Заказ наряд успешно изменен",
  "DC": "Предварительный заказ-наряд",
  "CD": "Акт осмотра",
  "HD": "Рабочий заказ наряд",
  "GX": "Акт выполненых работ",
  "IC": "\nДоступно в статусе закрыт",
  "status": "Статус",
  "Mistake": "Содержание",
  "regionByAgent": "Регион",
  "cityByAgent": "Город",
  "streetsByAgent": "Улица",
  "houseByAgent": "Дом",
  "EDIT": "Редактировать",
  "DEFAULT": "Использовать по умолчанию",
  "registrationAddress": "Адрес регистрации",
  "legalAddress": "Юридический адрес",
  "physicalAddress": "Фактический адрес",
  "ADRESS_ADD": "ЗАДАТЬ Адрес",
  "CLOSED": "Закрыть",
  "UPDATE": "Изменить",
  "Adress_not_found": "Адрес не указан",
  "not_found": "нет данных",
  "rcbic": "БИК",
  "currentAccount": "Расчетный счет",
  "correspondentAccount": "Корреспондентский счёт",
  "ADDRESS": "Адрес",
  "BANK": "Банковские реквизиты",
  "LEGAL_ENTITY": "Юридические лицa",
  "LEGAL_ENTITIES": "Юридическое лицо",
  "INDIVIDUAL": "Физические лица",
  "INDIVIDUALS": "Физическое лицо",
  "SOLE_TRADER": "ИП",
  "SOLE_TRADERS": "Индивид. Предприниматель",
  "ALL": "Выбрать контрагента",
  "CREATECONTRAGENT": "Новый контрагент",
  "UPDATECONTRAGENT": "Редактировать контрагента",
  "ListContAgent": "Контрагенты",
  "COUNTREPARITY": "Все",
  "INN": "ИНН",
  "NAME": "Наименование",
  "ID": "Номер",
  "certificateNumber": "Номер сертификата",
  "certificateDate": "Дата сертификата",
  "personalData": "Паспортные данные",
  "psrnsp": "ОГРНИП",
  "kpp": "КПП",
  "legalName": "Наименование организации",
  "nameSto": "Название СТО",
  "phoneSto": "Контактный телефон",
  "coastTime": "Стоимость нормочаса",
  "coast": "Стоимость",
  "brand": "Бренд",
  "works": "РАБОТЫ",
  "coastSto": "Наценка на запчасти, %",
  "INDATAADRESS": "Задать",
  "MYPAY": "Мои Счета",
  "UnSuccessPay": "Не оплачен",
  "SuccessPay": "Оплачен",
  "Payment_Bill": "Счет на оплату",
  "Activate": "Активировать промокод",
  "DatterService": "Данные автосервиса",
  "SAVE": "Сохранить",
  "from": "от",
  "LOGIN": "Отправить SMS код",
  "AUTH": "Войти",
  "sms": "Код из SMS",
  "masters": "Пользователи",
  "masterPlaceHolder": "Информация для поиска",
  "phone": "Телефон",
  "first": "Имя",
  "last": "Фамилия",
  "role": "Роль",
  "AppLoader": "Приложение загружается",
  "middle": "Отчество",
  "edit_masters": "изменить пользователя",
  "new_masters": "новый пользователь",
  "q": "Текущие",
  "SearchDataModel": "Поиск по списку...",
  "description": "Описание",
  "Description": "Причина обращения",
  "PROMOPAY": "Промокод",
  "client": "Клиент",
  "through": "через",
  "EDIT_DEPOTS": "Редактирование склада",
  "BLOCK": "В резерве",
  "ResendSms": "Отправить SMS код повторно",
  "ListEmployee": "Cписок работников",
  "BLOCKED": "Заблокирован",
  "DESTROY": "Удалить",
  "UNBLOCK": "Разблокирован",
  "masterCreateUser": "Создать нового мастера",
  "FILTER": "ФИЛЬТР",
  "goBack": "Главное меню",
  "updateEdit": "Сохранить",
  "headerMasterEdit": "Редактировать мастера",
  "cancelBack": "ОТМЕНИТЬ И ВЕРНУТЬСЯ К СПИСКУ",
  "ADD": "Добавить",
  "garage": "Гараж",
  "MASTER": "Мастер-Приемщик",
  "DIRECTOR": "Управляющий",
  "ACTOR": "приемщик",
  "ADDED": "Cоздать",
  "num": "#",
  "AddingParts": "добавление  запчастей",
  "EditingParts": "редактирование запчасти",
  "Catalog": "Каталог",
  "SearchInGarage": "Поиск по складам",
  "createdAt": "Дата создания",
  "email": "E-mail",
  "inn": "ИНН",
  "naiming": "Название",
  "Settings": "Настройки",
  "Postupload": "Загрузка постов",
  "PostTimeupload": "Время на постах",
  "DATA": "Дата",
  "startAt": "Начало",
  "endAt": "Окончание",
  "Update": "Обновить приложение",
  "BronePost": "Забронировать",
  "Post": "Планироавние",
  "REMONT": "Ремонты",
  "SETTINGS": "Настройки",
  "CREATE": "Создать",
  "AutoService": "Автосервис",
  "PostRemont": "Посты ремонта",
  "Tariff": "Мой тариф",
  "Tech": "Техподдержка",
  "HelpDesk": "Справка",
  "HELP": "Помощь",
  "PROFILE": "Мой Профиль",
  "ConnectedSystem": "Доступ к системе",
  "Pay": "Оплатить",
  "LOGOUT": "Выйти из системы",
  "EndedPay": "Заканчивается",
  "DiffPay": "Осталось",
  "6mounth-PROMO": "Доступ к системе на 6 мес. по промокоду",
  "1mounth": "Доступ к системе на 1 мес.",
  "1year": "Доступ к системе на 1 год",
  "12mounth-PROMO": "Доступ к системе на 12 мес.",
  "14day-TESTDRIVE": "Тестовый доступ на 14 дней",
  "6mounth": "Доступ к системе на 6 мес.",
  "12mounth": "Доступ к системе на 12 мес.",
  "paymentAmount": "Оплачено :",
  "amountPayable": "Итого к оплате :",
  "SKLAD": "Склад",
  "NameAction": "Номенклатура",
  "GARAGE": "Склад",
  "Tax": "НДС, %",
  "tax": "НДС, %",
  "PriceBuy": "Цена Закупки (включая ндс )",
  "PriceBuy1": "Цена Закупки",
  "AddedContr": "добавить поставщика",
  "ADDContr": "поставщик",
  "ADDGoods": "Товарная позиции",
  "TextVersion1": "Вы можете попробовать найти автомобиль по VIN или гос. номеру в своей базе автомобилей",
  "TextVersion2": "Или добавить новый, если уверены, что данного автомобиля нет в вашей базе",
  "TextVersion3": "ИЛИ",
  "Total": "Итого",
  "SNAP": "снять",
  "UPLOAD": "Загрузить",
  "TotalAccount": "Итого на сумму :",
  "nal": "Выставить счет",
  "pay": "Банковская карта",
  "VarianPay": "Вариант оплаты",
  "NEW": "Новый",
  "empty_garage": "Склад пустой",
  "AutoServices": "Автосервис",
  "invoice": "Счет на оплату",
  "FindParts": "список запчастей",
  "inNal": "В наличие",
  "Sales": "Продано",
  "#": "#",
  "CoastIn": "Цена закупки",
  "CoastOut": "Цена продажи",
  "BACK": "Назад",
  "COAST": "Далее",
  "invavidSms": "Некорректный СМС код",
  "invalidPhone": "Некорректный номер телефона",
  "SELECTTASK": "ВЫБЕРИТЕ ЗАКАЗ НАРЯД",
  "BuySystem": "Покупка доступа к системе",
  "AddedPayement": "Добавление платежа",
  "EDIT_NAME": "Редактировать",
  "PeriodEditor": "Выберите период доступа к системе",
  "ArticleSearch": "Введите артикул запчасти в поле поиска и нажмите ENTER. Возможна ситуация, когда поставщик данных возвращает пустой список по запрошенному артикулу.",
  "LabelNextAgent": "Для формирования счёта необходимы данные, перечисленные ниже. Проверьте корректность их заполнения и нажмите «Далее»",
  "locksmith_repair": "Слесарный ремонт",
  "bodyshop": "Кузовной цех",
  "state_technical_inspection_line": "Линия ГТО",
  "receiving_and_issuing": "Прием и выдача автомобилей",
  "general_with_lift": "Общий ремонт (подъёмник)",
  "wheel_alignment": "Регулировка углов установки колес (сход развал)",
  "unit_repair": "Ремонт узлов и агрегатов",
  "tire_fitting": "Шиномонтаж",
  "electrician": "Электрика",
  "diagnostic": "Диагностика",
  "waiting": "Ожидание",
  "Filter": "Фильтрация",
  "Apply": "Применить",
  "Reset": "Сбросить",
  "car_storage": "Хранение готовых автомобилей",
  "car_wash": "Мойка",
  "additional_equipment_and_tuning": "Установка доп. оборудования и тюнинг",
  "preparation": "Подготовка",
  "disassembly_assembly": "Разборка / сборка",
  "reinforcing": "Арматурный пост",
  "slipway": "Стапельные работы",
  "car_coloring": "Окраска",
  "lcp_preparation": "Подготовка ЛКП",
  "welding": "Сварочный пост",
  "braking_force": "Стенд тормозных усилий",
  "shock_absorber_test": "Стенд проверки амортизаторов",
  "exhaust_emission_test": "Проверка токсичности ОГ",
  "ListClients": "клиенты",
  "Name": "Имя",
  "Clients": "клиенты",
  "LAST": "Фамилия",
  "PHONE": "Телефон",
  "FRAMENUMBER": "Госномер",
  "VIN": "VIN",
  "COLOR": "Цвет",
  "YEAR": "Год",
  "ADDED_NEW": "Создать еще",
  "ADDEDS": "Сохранить",
  "frameNumber": "№ кузова",
  "color": "Цвет",
  "vehicleManufacturers": "Марка",
  "listVehicleManufacturers": "Выбрать марку автомобиля",
  "ListClientsCars": "Автомобиль",
  "CatalogWork": "Каталог работ",
  "BuildLite": "Расчитать",
  "WORK": "Выбрать работу",
  "originalPrice": "Оптовая цена",
  "totalPrice": "Розничная цена",
  "unitCount": "Количество",
  "qty": "Количество",
  "name": "Наименование",
  "pricePerHour": "Цена/час",
  "timeHrs": "Время, часов",
  "discountCoast": "Скидка в руб",
  "EDITWORK": "Редактировать работу",
  "WORKSELF": "Своя работа",
  "ALLWORK": "Все работы",
  "FORTHISCAR": "Для данной модификации",
  "MYALLWORK": "Все мои работы",
  "CreateTask": "Заказ наряд",
  "vin": "VIN",
  "ownerPhone": "Номер",
  "FindTaskCar": "Найденный автомобиль",
  "FindByVIN": "Найденный автомобиль по VIN номеру",
  "FindByPLATE": "Найденный автомобиль по ГосЗнаку",
  "NewTaskCars": "новый заказ наряд",
  "EditTaskCars": "редактировать заказ наряд",
  "searchByEmployee": "Найти по телефону",
  "author": "Автор",
  "clients": "Лица владельца",
  "performer": "Исполнитель",
  "owner": "Владелец",
  "added": "Добавить",
  "searchByOwner": "Полнотекстовый поиск",
  "km": "км",
  "ADDPAY": "Добавление платежа",
  "promo": "Промокод",
  "APPLY": "сохранить",
  "year": "Год",
  "plate": "Гос. номер",
  "ListCars": "Автомобили",
  "ListCar": "Автомобиль",
  "CLIENTS": "Клиенты",
  "Current": "Наличие",
  "Reserved": "резерв",
  "ADDEDGARAGESTOCK": "Новая приемка от",
  "EDITGARAGESTOCK": "Приемка от",
  "Received": "Приемка",
  "actor": "Принял",
  "ADDEDINGARAGE": "ПРИНЯТЬ ТОВАР НА СКЛАД",
  "document": "Документы",
  "position": "Товарные позиции",
  "Task": "Заказ наряды",
  "org": "Организация",
  "GARAGES": "Склады",
  "MmileageHistory": "История Пробега",
  "CREATEGARAGE": "Создать склад",
  "NEWGARAGE": "Новый склад",
  "GARAGEOPERATION": "Складские операции",
  "GOODADDGARAGE": "Приемка",
  "ANOTHER": "Другое",
  "SEARCHGOODS": "Поиск запчастей",
  "vehicleModels": "Модель",
  "vehicleModifications": "Модификация",
  "mileage": "Пробег",
  "CustomLite": "Выбрать из",
  "action": "Тип работ",
  "discount": "Цены указаны с учетом скидки в размере ",
  "unitPrice": "Цена за единицу",
  "discountPersent": "Скидка %",
  "CREATEWORK": "Cоздать работу",
  "ListWork": "заказ - наряд",
  "AllWork": "Все",
  "preorder": "Предварительный",
  "inWork": "В работе",
  "completed": "Завершен",
  "closed": "Закрыт",
  "reconciliation": "Согласование",
  "suspended": "Приостановлен",
  "canceled": "Отменен",
  "NewPostUpload": "НОВЫЙ ПОСТ РЕМОНТА",
  "EditPostUpload": "РЕДАКТИРОВАНИЕ ПОСТА РЕМОНТА",
  "preorderDesc": "Стадия первоначального заполнения заказ-наряда. То же самое, что и 'Черновик'.",
  "inWorkDesc": "Автомобиль заехал в сервисную зону и над ним начали проводить необходимые работы.",
  "completedDesc": "Работы по заказ-наряду выполнены, автомобиль покинул сервисную зону и ожидает клиента. Оплата заказ-наряда НЕ произведена.",
  "closedDesc": "Заказ-наряд оплачен в полном объеме. Автомобиль передан клиенту.",
  "reconciliationDesc": "В процессе ремонта автомобиля выяснились некоторые обстоятельства, требующие согласования с клиентом и блокирующие процесс ремонта автомобиля.",
  "suspendedDesc": "Ремонт автомобиля приостановлен ввиду каких-то причин, не требующих согласования с клиентом (например, ожидание запчастей).",
  "canceledDesc": "Клиент отказался от ремонта, передумал или другие причины, означающие, что автомобиль не будет ремонтироваться.",
  "PLATE": "Гос. номер",
  "address": "Фактический адресс",
  "bankName": "Наименование банка",
  "checkingAccount": "Расчетный счет",
  "billPaymentLabel": "Выберите период доступа к системе",
  "PAY": "Далее",
  "AGREE": "Согласен",
  "PERSONALPOLICY": "ПОЛИТИКОЙ ОБРАБОТКИ ПЕРСОНАЛЬНЫХ ДАННЫХ",
  "POLICYORGANIZATION": " ПОЛИТИКА В ОТНОШЕНИИ ОРГАНИЗАЦИИ ОБРАБОТКИ ПЕРСОНАЛЬНЫХ ДАННЫХ",
  "pendingPay": "Ожидает действий от пользователя",
  "succeededPay": "Платеж успешно завершен",
  "waitingPay": "Платеж оплачен, деньги авторизованы и ожидают списания",
  "canceledPay": "Платеж отменен",
  "falsePay": "Нет данных для показа",
  "paymentPay": "Платежи",
  "NEW_ListWork": "Новый ремонт",
  "TaskWorks": "Заказ-наряды",
  "TaskWork": "Заказ-наряд",
  "ContactPhone": "Контактный телефон ",
  "copy": "Скопировать",
  "DELETEALERT": "Вы действительно хотите подтвердить данное действие",
  "DELETESTATUSTASK": "Вы действительно хотите изменить статус заказу",
  "HeaderAlert": "Подтвердить действие",
  "P": "Бензиновый",
  "PT": "Бензиновый (турбо)",
  "D": "Дизельный",
  "DT": "Дизельный (турбо)",
  "fuel": "тип двигателя",
  "Cancel": "Отменить",
  "Yes": "Да",
  "destroy_employee": "Вы действительно хотите удалить данного пользователя?",
  "destroy_contragent": "Вы действительно хотите удалить данного контрагента?",
  "destroy_bankDetail": "Вы действительно хотите удалить банковские реквизиты?",
  "destroy_docs": "Вы действительно хотите удалить данный документ?",
  "destroy_repair_part": "Вы действительно хотите удалить дополнительную запчасть?",
  "destroy_part": "Вы действительно хотите удалить основную запчасть?",
  "destroy_post": "Вы действительно хотите удалить данный пост ремонта?",
  "destroy_works": "Вы действительно хотите отказаться от данной услугу?",
  "destroy_garage": "Вы действительно хотите удалить данный склад?",
  "Share File": "Поделиться",
  "Reset File": "Обновить",
  "Print File": "Печать",
  "ADDEDGARAGEPOSITION": "Добавление товарной позиции",
  "PolicyAddCheck": "Пользователь ознакомился с Политикой конфиденциальности и согласен на обработку персональных данных",
  "I_Agree": "Пользователь ознакомился и согласен",
  "Personal_policy": "Политика конфиденциальности",
  "Processing_data": "Согласие на обработку персональных данных",
  "Read_Data_Confirm": "Прочитайте и нажмите что вы согласны с правилами",
  "ADDEDNEWCAR": "Добавить новый автомобиль с",
  "SEARCHBYLIST": "Поиск по списку ...",
  "Note": "Рекомендации",
  "Employeers": "Участники",
  "DescribeTask": "Опишите, с какой проблемой приехал клиент",
  "notname": "Не указанно наименование",
  "notphone": "Не указан номер телефона",
  "notemail": "Не указанно email",
  "notcostPerHour": "Не указан норма часа",
  "notcheckingAccount": "Не указан расчетный счет",
  "notcorrespondentAccount": "Не указан корреспондентский счет",
  "notrcbic": "Не указан бик банка",
  "notinn": "Не указан инн",
  "notkpp": "Не указан кпп организации",
  "notpsrn": "Не указан ОГРН",
  "notdefaultPartSurcharge": "Не указана стоимость скидки",
  "nottype": "Не указан тип юр. лица",
  "notmanufacture": "Не указан тип автомобиля",
  "notmodels": "Не указана модель автомобиля",
  "notmodification": "Не указана модификация автомобиля",
  "notyear": "Не указан год автомобиля",
  "notplate": "Не указан гос. номер автомобиля",
  "notvin": "Не указан vin автомобиля",
  "notframeNumber": "Не указан номер кузова автомобиля",
  "notmileage": "Не указан пробег автомобиля",
  "notName": "Не указанно наименование",
  "notTimeHrs": "Не указана время работы",
  "notUnitPrice": "Не указана цена за единицу товара",
  "notCount": "Не указанно количество",
  "CMT": "Сантиметр",
  "MTR": "Метр",
  "GRM": "Грамм",
  "KGM": "Килограмм",
  "LTR": "Литр",
  "MTK": "Квадратный метр",
  "CMK": "Квадратный сантиметр",
  "NMP": "Упаковка",
  "PCE": "Штука"
}
